label	sentence
0	@ jason78 y ur brain and heart hurt
1	representative burton said such a relationship would endanger the united states and other countries in the hemisphere
0	@ digitaldolphin did you ask why he did it ? orr ?
0	mothers dayy
1	venezuela ' s president has been promoting latin american energy integration
1	a hospital spokesperson , anat dolev , said mr
1	the bay of pigs invasion was a cia - backed attempt by cuban exiles to overthrow fidel castro
1	officials say the diplomats were to discuss the recent political developments in iraq , and the next stages of the political process including the drafting of the nation ' s constitution by the new government of prime minister ibrahim al - jaafari
0	back from rhodes relaxed to the max . . . no back to teh job search ! !
0	@ dantmo haha aw ! just in time for me to leave for the whole summer july 18th , nassau coliseum , come visit meee !
1	witnesses say police fired into a crowd late tuesday in dongzhou village , where at least 1 , 000 people were protesting inadequate compensation for land taken for the construction of a power plant
0	@ tommcfly the merch looks amazing this year ! just a shame i havent got any money at all x
0	@ _gmcd_ i saw that , too late did you see ellen today ? sooo sweet . apparently ray foley ' s dj - ing in cps sometime soon , lucky you
1	a constitution came into effect in 2006 , but the legal status of political parties remains unclear
0	my back won ' t crack
0	i think im getting sick .
1	india ' s cricket team has compiled an impressive total of 352 - 3 after the opening day of the second test against pakistan in kolkata
0	baking in the heat
1	late last year , tomohito suggested bringing back concubines to produce male heir before allowing a woman to head the ancient monarchy
1	a state - run newspaper , al - gomhouria , wednesday quoted mr
1	the au leaders are also expected to support a proposal calling for the continent to get two permanent seats and two non - permanent seats on an expanded u
1	in early march , king mohammed vi agreed to establish a commission to reform the country ' s constitution ; a popular referendum held in early july 2011 overwhelmingly approved the new constitution
1	the iaea made the claim in a confidential document
1	the world health organization says the worldwide number of polio cases rose by more than 30 percent last year , to more than 1 , 170
0	@ mekkeon and still counting . . .
1	other support it
1	the coup leaders have promised to hold a general election under a new constitution within a year
1	president karzai issued a decree saturday noting the constitution requires the vote to be held 30 to 60 days before his five - year term expires on may 21
1	officials say voting for a new national assembly , the lower house of parliament , will be held june 10 and june 17
0	last final in say an hour yay , but i don ' t want to leave you but is psyched cuz keith urban and taylor swift r havin a concert 2day
1	at least three others were wounded
0	@ ginachristine14 cuz i have a huge headache shhhhhhhh i drank red bull and vodka secret lol
0	my dress is finished ! : : http : / / tinyurl . com / q9xzta
0	damn it i have to get ready for shopping and i hate going out on sundays
1	jennifer lopez will come to your party - for a price
0	is wearing flipflops ! ! it is so happy ! ahah , school till 11 then joe ' s for athea ' s birthday lunch ! & lt ; 3
1	upon his abrupt death in august 2008 , he was succeeded by his vice president rupiah banda , who subsequently won a special presidential by - election in october 2008
0	@ ciaag3nt thats great ( ( ( hugs ) ) )
1	national park service
0	is going to spend the day with the in laws
0	@ ladyyana put the good ones dont get foul or sour , so you keep it . . . treat men like garbage ladies and throw out the sour ones
0	xboxtweet not working again
1	two au peacekeepers from nigeria and two civilian contractors were killed saturday in an ambush the au blamed on the main darfur rebel group , the sudan liberation army
1	lecturer john gai yoh of the university of south africa ( unisa ) in pretoria credits the leader of the sudanese liberation movement with creating a campaign that included allies beyond his base in the south
0	very hungover ! !
0	@ karafortson i miss youuuuu
1	security council has canceled plans to send a delegation to talks with the sudanese government and the african union on the crisis in darfur
0	doing laundry getting ready to go to garage sales
1	he said that process could take as long as three days
1	witnesses say they have only seen 1 , 000 prisoners released friday
0	@ tonysarti is it in crowntown ? i think i may just meet you there ? let me get ready and ill let you know
1	space agency officials say they will be studying the data taken from the huygens space probe
1	he added that dna laboratories currently being used in phuket are unable to deal with the overwhelming number of samples being taken
0	it ' s raining
0	im tired . . . . . . . yet i cant sleep . . . . . ew . exams 1 more .
1	ethiopia ' s main opposition coalition has reaffirmed its commitment to a non - violence pact with the government - a deal aimed at ending post - election violence in the country
0	i ' ll miss my parents and my friends
0	@ sweeneyjess we gotta make plans soon & lt ; 3
1	the fall in prices followed a u
0	trying to give a dog medicine is a work - out
1	an iraqi defense ministry official said the attack occurred at a checkpoint in the city , about 130 kilometers north of baghdad
1	china , meanwhile , reacted angrily to taiwan , warning that the decision could bring disaster to the island
0	@ valcontreras yes i am at work
0	@ tarayqueen too much ads on my blog .
1	if they are confirmed to have died of bird flu , indonesia ' s death toll from the disease will rise to 14
1	meanwhile , rescue teams in rafts and boats pulled people from flooded homes in the cuban capital , havana , monday after seas swollen by wilma submerged parts of the city under water
0	is having tuna sandwhiches for breakfast . walay nag lung . ag ug kan . on ! haha http : / / plurk . com / p / 117zdw
0	wants to find steve furnell ' s facebook / twitter or something ! but cannit find it anywhere . . anyone got it ? i hate twitter : |
1	no one in japan has yet been infected by the h5n1 avian flu virus that has killed 38 vietnamese , 12 thais and four cambodians since the latest epidemic began in 2003
0	no body told me there was a pool party at my house today .
0	libertines reunion i need a haircut , its gone too curly
1	the resolution also empowers the new u
0	producing . . . msnbc . . . right now . . . segment / reporter hits coming up . . . ahh !
0	just finished voting for my favorite teen choice awards nominees . btw ; @ tristanwilds ; i voted for ya !
1	protesters marched monday in tbilisi , shortly after a military parade marking georgia ' s independence day
1	earlier wednesday , palestinians blamed israel after the suspect ' s car exploded near hamas police headquarters
0	@ jordanmccoy aw , i feel your pain .
1	namibian authorities have ordered two americans deported for recruiting namibians for security jobs in iraq and afghanistan
0	is trying to workout this tweetdeck software . . . . looks good . . . . once i can learn how to use it properly ! ! ! lol
1	he won public support by vowing to crack down on corruption and drug trafficking
0	has one more paper left
1	al jazeera , the arabic - language television news network , says a telephone caller threatened to blow up the building housing its beirut bureau because of the network ' s coverage of saturday ' s car bomb explosion in beirut
1	iraqi president jalal talabani says he believes voters will approve the country ' s new constitution in a nationwide referendum next month
0	@ tokaino well did you try ? haha
1	the current mideast crisis began july 12 , when hezbollah guerrillas kidnapped two israeli soldiers and killed eight in a raid
0	@ ddlovatofans101 good night have a good sleep
0	@ jennisariot i wish i ' d bothered to plan it out better . couldve had a gathering . heyho . sad face .
1	bush ' s support for the vision of a palestinian state living side - by - side with israel
1	internet giant google is planning to install solar panels at its headquarters in the western state of california to run some of its operations with energy from the sun
1	on sunday , palestinian lawmakers voted overwhelmingly to urge palestinian authority president mahmoud abbas to fire his cabinet for failing to stop factional fighting in the gaza strip
0	byeeee everyone im getting ready for beddd ! ! ! ! dad can ' t drive me in the morning
0	ipod and bbm
0	currently turning grandma dresses into really cute dresses
0	cannot wait until @ 500daysofsummer comes out !
0	says good morning http : / / plurk . com / p / xhvfo
1	the appointment takes effect nov
0	kind of sort of awake . trying to wake up melissa to go to the oral surgeon to get her wisdom teeth out soon . poor kid happy 52nd mom & amp ; dad !
0	@ pedroaniceto @ va5co . . . in other words , he was ( h ) armless .
1	there still is no word on the journalist ' s fate , following a threat by her kidnappers to execute her friday unless all eight female detainees in american custody in iraq were released
1	russia ' s economy has also been hit by the fall in the price of oil
0	# terminator the sarah connor chronicles has been officially cancelled now .
1	venezuelan police have arrested two brothers in connection with the killing of a top government prosecutor
1	he says the greatest gift someone can give is the gift of prayer , saying it has the power to change lives and the course of history
1	there has been no response from the group
0	spinning on the swivel chair whilest talking to maii
1	the democratic candidate cried at a rally in north carolina monday when talking about the death of his grandmother , who helped raise him
1	the conciliatory messages follow efforts by palestinian leader mahmoud abbas to persuade militants to end their campaign of anti - israeli attacks so he can negotiate for a palestinian state on israeli - occupied lands
1	russian president dmitri medvedev has arrived the kazakhstan capital , astana , on his first trip abroad since taking office earlier this month
1	the peacekeepers were deployed in 2004 after former president jean - bertrand aristide was ousted in an uprising
0	ahh , i feel like crap and i feel sick blahhhhhhhhhh , hows everyone ?
0	great way to start off the day . . . moved my laptop back here and the damned power brick broke . . . now it won ' t work to charge my laptop
0	fell asleep before eating dinner and now it ' s too late to eat anything . . . . . poop
1	international observers say there was no evidence of widespread fraud
1	on saturday , italy ' s candidate for the european union ' s top executive body , rocco buttiglione - a conservative catholic - stepped down from consideration following controversial remarks that included his description of homosexuality as a sin
0	bored today
0	idk wat to do today was gonna go to the beach but the weather is being mean
0	surgery
0	hmm . . feeling hungry now . already ordered taiwanese food from the restaurant next door . . yummy ~
1	a defense ministry announcement says the prince , a second lieutenant in the blues and royals regiment , will begin service in iraq in the next few months as part of a british troop rotation
0	@ metaphoricxeyes haha , i still think you should write me a song about spencer
0	@ ashleypaigee and @ marthab68 are retarded
0	okay tweeps . . . gotta bust out some chores
0	@ zackalltimelow is the best
1	a un - negotiated peace agreement between frelimo and rebel mozambique national resistance ( renamo ) forces ended the fighting in 1992
1	spain ' s air traffic control agency ( aena ) said tuesday that four airports in the canary islands and three airports in southern spain have been shut down
0	is trekkin ' over to maria ' s !
0	@ a bar with good people
0	dilemma starts again . . . sad , empty and confused . . .
1	an aggressive austerity program in the preceding years , aimed at paving the way for the euro , helped turn a soaring fiscal deficit ( 6
1	a japanese official tuesday quoted iran ' s visiting foreign minister manouchehr mottaki as saying that the russian plan would be a bridge between iran ' s right to peaceful nuclear energy and global trust in tehran
1	the british team says the volcano erupted about 23 centuries ago , roughly in the year 325 b
1	the high court ' s ruling wednesday is a victory for the white house , which has held mr
0	josh thomas makes me feel giddy , hehe . goodnight
0	no sleep again
1	fox also heads to california , where he is to meet with that state ' s governor , arnold schwarzenegger , as well as with los angeles mayor antonio villaraigosa , who is mexican - american
0	@ saritaonline speechless !
0	@ jenkellytisdale sure , thing . i so love you and your sister . you were great in bring it on 4 . .
1	the third test of the four - match series starts in perth january 16th
1	in both cases residents of the houses were warned in advance
1	questions ? call pat bray at 241 - 2661 or e - mail , jcfundrzr @ aol
0	only work one day this weekend !
1	the global financial crisis has exacerbated this cyclical slowdown through increased borrowing costs and lower export demand , consumer confidence , and investment
1	there are unconfirmed reports that the dead were all members of the same family
1	italy and all other european union countries do not permit capital punishment
1	the associated press quotes a 60 - year - old local man as saying hundreds of kurds are buried at the site , including his brother
1	abe reiterated japan ' s stance that normalizing relations with north korea will not be possible until the abduction issue is resolved
0	well someone rained on my parade : |
0	@ flizzow congrats on the award
1	european union foreign policy chief javier solana is visiting afghanistan tuesday for talks with the country ' s political leaders on the upcoming presidential election
1	the publisher of a major u
1	there is no word on any progress in the talks , which began thursday
0	@ lizook12 the link you gave points only to 4 stories , none of them with your name . . .
0	i want to watch rugrats , but i dont think its on until 2 : 30am or 3 : 00am . ohh well at least im on summer vacation ! lol
1	but he also called on beijing to use its significant influence with khartoum to agree to the full deployment of a hybrid u
0	gonna miss mom til wednesday !
1	reuters news agency reports a similar prison break in indonesia ' s aceh province
0	is happy . but not that i am & quot ; gay & quot ; . im not lesbian . !
0	says hi everyone ! http : / / plurk . com / p / 10zs3v
1	"british foreign secretary jack straw says it is "" inconceivable "" that any military action will be taken against iran over its nuclear program"
0	@ himynameisjawsh oh no how are you gonna get it fixed ?
0	i hope patrick is okay
1	relief agencies called it a record for the nation , which may have lost more citizens in the disaster than any other in europe
0	@ csdaley lol well i am very definitely a nerd . but i like nerds .
0	heading to dreamland
0	@ nishiellet : aww doing baby sister hair . aww . and no i dont i need janet jackson , d . s . control . rhythm nation . janet . and velvet rope
1	earlier , prime minister dominique de villepin made a surprise visit to the paris suburb of aulnay - sous - bois hard - hit by the riots
1	the 14 - kilometer - long tunnel is part of a rail line linking yichang city in hubei province with wanzhou in southwest china
0	@ vintagegoodness thank you much .
